\relax 
\@writefile{toc}{\contentsline {section}{\numberline {1}Beschreibung}{3}}
\@writefile{toc}{\contentsline {subsection}{\numberline {1.1}Login}{3}}
\@writefile{toc}{\contentsline {subsection}{\numberline {1.2}Stundenplanseite}{3}}
\@writefile{toc}{\contentsline {subsubsection}{\numberline {1.2.1}Aufruf und \IeC {\"U}bersicht}{3}}
\@writefile{toc}{\contentsline {subsubsection}{\numberline {1.2.2}Bearbeiten des Stundenplanes}{3}}
\@writefile{toc}{\contentsline {subsubsection}{\numberline {1.2.3}Registrierung}{4}}
\@writefile{toc}{\contentsline {subsubsection}{\numberline {1.2.4}Download und Upload XML}{4}}
\@writefile{toc}{\contentsline {section}{\numberline {2}Bereits angelegte User}{4}}
